﻿Name,Room,Start,End
Booking 1,Big Room,23/04/2019 08:00,23/04/2019 09:00
Booking 2,Big Room,23/04/2019 08:30,23/04/2019 10:00
Booking 3,Big Room,23/04/2019 07:00,23/04/2019 10:00
Booking 4,Small Room,23/04/2019 08:30,23/04/2019 10:00